Data, Code and Visualization - #30diasdegraficos Parte 2
…
Los datos a utilizar son mtautos del paquete {datos} pero pasando algunas variables a las métricas que usualemente utilizamos: libras a kilos, pulgadas cúbicas a centímeotrs cúbicos, etc.

Code
mtautos2 <- as_tibble(mtautos) %>% 
  mutate(auto = rownames(mtautos)) %>% 
  arrange(desc(caballos)) %>% 
  mutate(
    auto = forcats::fct_inorder(factor(auto)),
    peso_kg = round(0.4535923 * peso * 1000),
    cilindrada_cc = round(16.387 * cilindrada)
    ) 
  
mtautos2

# A tibble: 32 × 14
   millas cilindros cilindrada cabal…¹   eje  peso veloc…² forma trans…³ cambios
    <dbl>     <dbl>      <dbl>   <dbl> <dbl> <dbl>   <dbl> <dbl>   <dbl>   <dbl>
 1   15           8       301      335  3.54  3.57    14.6     0       1       5
 2   15.8         8       351      264  4.22  3.17    14.5     0       1       5
 3   14.3         8       360      245  3.21  3.57    15.8     0       0       3
 4   13.3         8       350      245  3.73  3.84    15.4     0       0       3
 5   14.7         8       440      230  3.23  5.34    17.4     0       0       3
 6   10.4         8       460      215  3     5.42    17.8     0       0       3
 7   10.4         8       472      205  2.93  5.25    18.0     0       0       3
 8   16.4         8       276.     180  3.07  4.07    17.4     0       0       3
 9   17.3         8       276.     180  3.07  3.73    17.6     0       0       3
10   15.2         8       276.     180  3.07  3.78    18       0       0       3
# … with 22 more rows, 4 more variables: carburadores <dbl>, auto <fct>,
#   peso_kg <dbl>, cilindrada_cc <dbl>, and abbreviated variable names
#   ¹​caballos, ²​velocidad, ³​transmision
…
Avanzado. Este es una guia en español para hacer un treemap mostrando la cardinalidad de cada tipo y subtipo de pokemon. Primero descargaremos los datos desde el repositorio https://github.com/PokeAPI/pokeapi/tree/master/data/v2/csv.

Partiremos con la lista de pokemon:

Code
library(readr)

url_base <- "https://raw.githubusercontent.com/PokeAPI/pokeapi/master/data/v2/csv"

pkmnes <- read_csv(file.path(url_base, "pokemon.csv"))
pkmnes

# A tibble: 1,154 × 8
      id identifier species_id height weight base_experience order is_default
   <dbl> <chr>           <dbl>  <dbl>  <dbl>           <dbl> <dbl>      <dbl>
 1     1 bulbasaur           1      7     69              64     1          1
 2     2 ivysaur             2     10    130             142     2          1
 3     3 venusaur            3     20   1000             263     3          1
 4     4 charmander          4      6     85              62     5          1
 5     5 charmeleon          5     11    190             142     6          1
 6     6 charizard           6     17    905             267     7          1
 7     7 squirtle            7      5     90              63    10          1
 8     8 wartortle           8     10    225             142    11          1
 9     9 blastoise           9     16    855             265    12          1
10    10 caterpie           10      3     29              39    14          1
# … with 1,144 more rows
…
Code
pkmn_colores_tipo2 <- crossing(
  color_1 = pkmn_colores_tipo$color,
  color_2 = pkmn_colores_tipo$color
  ) %>% 
  mutate(
    color_f = purrr::map2_chr(
      color_1,
      color_2,
      ~ colorRampPalette(c(.x, .y))(100)[round(100 * .25)])
    )

pkmn_colores_tipo2

# A tibble: 324 × 3
   color_1 color_2 color_f
   <chr>   <chr>   <chr>  
 1 #6890F0 #6890F0 #6890F0
 2 #6890F0 #7038F8 #697AF1
 3 #6890F0 #705848 #6982C7
 4 #6890F0 #705898 #6982DA
 5 #6890F0 #78C850 #6B9DC9
 6 #6890F0 #98D8D8 #73A1EA
 7 #6890F0 #A040A0 #757CDC
 8 #6890F0 #A890F0 #7790F0
 9 #6890F0 #A8A878 #7795D2
10 #6890F0 #A8B820 #7799BD
# … with 314 more rows
…
# str(gransantiago, max.level = 4)

dcomuna <- gransantiago$features %>% 
  purrr::map_df("properties") %>% 
  rename_all(stringr::str_to_lower) %>% 
  select(comuna, nom_comuna) %>% 
  mutate(
    comuna = as.numeric(comuna),
    nom_comuna = stringr::str_to_title(nom_comuna)
    )

dcomuna

# A tibble: 37 × 2
   comuna nom_comuna  
    <dbl> <chr>       
 1  13114 Las Condes  
 2  13115 Lo Barnechea
 3  13107 Huechuraba  
 4  13132 Vitacura    
 5  13124 Pudahuel    
 6  13125 Quilicura   
 7  13116 Lo Espejo   
 8  13102 Cerrillos   
 9  13119 Maipú       
10  13105 El Bosque   
# … with 27 more rows
…
nombre_variable <- sinimr::get_sinim_var_name(varcode)
nombre_variable <- stringr::str_to_title(nombre_variable)

dvar <- get_sinim(varcode, 2018, region = 13, truevalue = TRUE) %>% 
  as_tibble() %>% 
  select(code, value) 
  
dvar <- dvar %>% 
  left_join(dcomuna, by = c("code" = "comuna")) %>% 
  mutate(value = round(value/1e6))

dvar

# A tibble: 52 × 3
    code  value nom_comuna      
   <dbl>  <dbl> <chr>           
 1 13101 117043 Santiago        
 2 13102  18315 Cerrillos       
 3 13103  18524 Cerro Navia     
 4 13104  18481 Conchalí        
 5 13105  23108 El Bosque       
 6 13106  26108 Estación Central
 7 13107  33880 Huechuraba      
 8 13108  12990 Independencia   
 9 13109  13173 La Cisterna     
10 13110  59160 La Florida      
# … with 42 more rows
…
dcovid <- left_join(
  dcovid_ultimo,
  dcovid_largo,
  by = "comuna"
  ) %>% 
  mutate(comuna = as.numeric(comuna)) %>% 
  inner_join(dcomuna, by = "comuna") %>% 
  rename(value = casos)

dcovid

# A tibble: 37 × 5
   comuna fecha       value ttdata       nom_comuna      
    <dbl> <date>      <dbl> <list>       <chr>           
 1  13102 2022-12-19  20606 <list [284]> Cerrillos       
 2  13103 2022-12-19  33602 <list [284]> Cerro Navia     
 3  13104 2022-12-19  31316 <list [284]> Conchalí        
 4  13105 2022-12-19  43099 <list [284]> El Bosque       
 5  13106 2022-12-19  40553 <list [284]> Estación Central
 6  13107 2022-12-19  27683 <list [284]> Huechuraba      
 7  13108 2022-12-19  29552 <list [284]> Independencia   
 8  13109 2022-12-19  24379 <list [284]> La Cisterna     
 9  13110 2022-12-19 106640 <list [284]> La Florida      
10  13111 2022-12-19  30675 <list [284]> La Granja       
# … with 27 more rows
…
