Visualizing Chess Data With ggplot – Data, Code and Visualization
…
Code
library(tidyverse)
library(ggplot2)
library(rchess)

theme_set(
  theme_void(base_family = "Segoe UI") + 
    theme(legend.position = "none")
  )

data(chesswc)

chesswc

# A tibble: 1,266 × 11
   event site  date       round white black result whiteelo blackelo eco   pgn  
   <chr> <chr> <date>     <dbl> <chr> <chr> <chr>     <int>    <int> <chr> <chr>
 1 FIDE… Khan… 2011-08-28   1.1 Kaab… Karj… 0-1        2344     2788 D15   1. d…
 2 FIDE… Khan… 2011-08-28   1.1 Ivan… Stee… 1-0        2768     2362 E68   1. c…
 3 FIDE… Khan… 2011-08-28   1.1 Ibra… Mame… 0-1        2402     2765 E67   1. N…
 4 FIDE… Khan… 2011-08-28   1.1 Pono… Gwaz… 1-0        2764     2434 B40   1. e…
 5 FIDE… Khan… 2011-08-28   1.1 Hans… Gash… 0-1        2449     2760 A61   1. d…
 6 FIDE… Khan… 2011-08-28   1.1 Gris… Genb… 1-0        2746     2452 D37   1. d…
 7 FIDE… Khan… 2011-08-28   1.1 De L… Radj… 0-1        2477     2744 B30   1. e…
 8 FIDE… Khan… 2011-08-28   1.1 Kams… Di B… 1-0        2741     2480 B90   1. e…
 9 FIDE… Khan… 2011-08-28   1.1 Lima… Svid… 1/2-1…     2493     2739 D85   1. d…
10 FIDE… Khan… 2011-08-28   1.1 Jako… Sale… 1-0        2736     2493 B69   1. e…
# ℹ 1,256 more rows
…
[1] "1. d4 Nf6 2. c4 e6 3. Nc3 Bb4 4. Nf3 b6 5. g3 Bb7 "

Compare the previous string with the first 10 rows of the history_detail()

Code
chss <- Chess$new()
chss$load_pgn(pgn)

[1] TRUE

Code
chss$history_detail() %>%
  arrange(number_move)

# A tibble: 178 × 8
   piece    from  to    number_move piece_number_move status number_move_capture
   <chr>    <chr> <chr>       <int>             <int> <chr>                <int>
 1 d2 Pawn  d2    d4              1                 1 <NA>                    NA
 2 g8 Knig… g8    f6              2                 1 <NA>                    NA
 3 c2 Pawn  c2    c4              3                 1 game …                  NA
 4 e7 Pawn  e7    e6              4                 1 <NA>                    NA
 5 b1 Knig… b1    c3              5                 1 captu…                  12
 6 f8 Bish… f8    b4              6                 1 <NA>                    NA
 7 g1 Knig… g1    f3              7                 1 <NA>                    NA
 8 b7 Pawn  b7    b6              8                 1 game …                  NA
 9 g2 Pawn  g2    g3              9                 1 <NA>                    NA
10 c8 Bish… c8    b7             10                 1 <NA>                    NA
# ℹ 168 more rows
# ℹ 1 more variable: captured_by <chr>
…
# library(doParallel)
# workers <- makeCluster(parallel::detectCores())
# registerDoParallel(workers)
# moves <- plyr::llply(chesswc %>% pull(pgn), function(p) {
#   chss <- Chess$new()
#   chss$load_pgn(p)
#   chss$history_detail()
#   },  .parallel = TRUE, .paropts = list(.packages = c("rchess")))

dfmoves

# A tibble: 41,616 × 9
   game_id piece     from  to    number_move piece_number_move status   
     <int> <chr>     <chr> <chr>       <int>             <int> <chr>    
 1       1 a1 Rook   a1    c1             57                 1 <NA>     
 2       1 a1 Rook   c1    h1             65                 2 <NA>     
 3       1 a1 Rook   h1    h5             73                 3 <NA>     
 4       1 a1 Rook   h5    h7             89                 4 <NA>     
 5       1 a1 Rook   h7    e7             95                 5 captured 
 6       1 b1 Knight b1    d2             13                 1 <NA>     
 7       1 b1 Knight d2    f1             69                 2 <NA>     
 8       1 b1 Knight f1    e3             75                 3 captured 
 9       1 c1 Bishop c1    b2             31                 1 <NA>     
10       1 c1 Bishop b2    c1             87                 2 game over
# ℹ 41,606 more rows
# ℹ 2 more variables: number_move_capture <int>, captured_by <chr>

The dfmoves data frame will be the heart from all these plots due have a lot of information and it is easy to consume.

Piece Movements

To try replicate the result it’s necessary the data to represent (and then plot) the board. In the rchess package there are some helper functions like chessboardata().

Code
dfboard <- rchess:::.chessboarddata() %>%
  select(cell, col, row, x, y, cc)

dfboard

# A tibble: 64 × 6
   cell  col     row     x     y cc   
   <chr> <chr> <int> <int> <int> <chr>
 1 a1    a         1     1     1 b    
 2 b1    b         1     2     1 w    
 3 c1    c         1     3     1 b    
 4 d1    d         1     4     1 w    
 5 e1    e         1     5     1 b    
 6 f1    f         1     6     1 w    
 7 g1    g         1     7     1 b    
 8 h1    h         1     8     1 w    
 9 a2    a         2     1     2 w    
10 b2    b         2     2     2 b    
# ℹ 54 more rows
…
Code
dfsurvrates <- dfmoves %>%
  filter(!is.na(status)) %>%
  group_by(piece) %>%
  summarize(
    games = n(),
    was_captured = sum(status == "captured")
    ) %>%
  mutate(surv_rate = 1 - was_captured/games)

dfsurvrates %>%
  arrange(desc(surv_rate))

# A tibble: 32 × 4
   piece      games was_captured surv_rate
   <chr>      <int>        <int>     <dbl>
 1 Black King   433            0     1    
 2 White King   433            0     1    
 3 h2 Pawn      433          121     0.721
 4 h7 Pawn      433          148     0.658
 5 g2 Pawn      433          150     0.654
 6 g7 Pawn      433          160     0.630
 7 f2 Pawn      433          178     0.589
 8 a2 Pawn      433          183     0.577
 9 a7 Pawn      433          185     0.573
10 f7 Pawn      433          185     0.573
# ℹ 22 more rows
…
