#GOT Animating the Shifting of Affiliations – Data, Code and Visualization
…
In this case the data can be downloaded from this repository https://github.com/MattLunkes/GoT_Affiliations.

Code
library(tidyverse)

data <- read_csv("https://raw.githubusercontent.com/MattLunkes/GoT_Affiliations/master/got_char.csv")
data

# A tibble: 488 × 11
   Name        Origin `Starting Affiliation` `End of S1` `End of S2` `End of S3`
   <chr>       <chr>  <chr>                  <chr>       <chr>       <chr>      
 1 Tyrion Lan… House… King Robert Baratheon  King Joffr… King Joffr… King Joffr…
 2 Cersei Lan… House… King Robert Baratheon  King Joffr… King Joffr… King Joffr…
 3 Daenerys T… House… Viserys Targaryen      Daenerys T… Daenerys T… Daenerys T…
 4 Jon Snow    House… King Robert Baratheon  Night's Wa… Wildlings   Night's Wa…
 5 Sansa Stark House… King Robert Baratheon  King Joffr… King Joffr… King Joffr…
 6 Arya Stark  House… King Robert Baratheon  Other, Wes… Other, Wes… Other, Wes…
 7 Jaime Lann… House… King Robert Baratheon  King Joffr… King Joffr… King Joffr…
 8 Jorah Morm… House… Viserys Targaryen      Daenerys T… Daenerys T… Daenerys T…
 9 Theon Grey… House… King Robert Baratheon  Robb Stark… Balon Grey… King Joffr…
10 Samwell Ta… House… Night's Watch          Night's Wa… Night's Wa… Night's Wa…
# ℹ 478 more rows
# ℹ 5 more variables: `End of S4` <chr>, `End of S5` <chr>, `End of S6` <chr>,
#   `End of S7` <chr>, Episodes <dbl>
…
# there are some repeated characters?
data_long <- data_long |> 
  semi_join(count(data, Name) |> filter(n == 1), by = c("name" = "Name")) |> 
  # importante for the ggrepel part
  arrange(season, name, affiliation)

data_long

# A tibble: 3,592 × 3
   name            season affiliation  
   <chr>            <dbl> <chr>        
 1 Addam Marbrand       0 Baratheon    
 2 Adrack Humble        0 Baratheon    
 3 Aeron Greyjoy        0 Baratheon    
 4 Aggo                 0 Khal Drogo   
 5 Alliser Thorne       0 Night's Watch
 6 Alton Lannister      0 Baratheon    
 7 Alys Karstark        0 Baratheon    
 8 Amory Lorch          0 Baratheon    
 9 Anara                0 Essos        
10 Anguy                0 Baratheon    
# ℹ 3,582 more rows
…
  dout
  
})

change_total <- change_season |> 
  group_by(from, to) |> 
  summarise(n = sum(n)) |> 
  ungroup()

change_total

# A tibble: 119 × 3
   from                                    to                                  n
   <chr>                                   <chr>                           <int>
 1 Balon Greyjoy, King of the Iron Islands Balon Greyjoy, King of the Iro…    31
 2 Balon Greyjoy, King of the Iron Islands Deceased                            7
 3 Balon Greyjoy, King of the Iron Islands Euron Greyjoy, King of the Iro…     4
 4 Balon Greyjoy, King of the Iron Islands Lannister                           1
 5 Balon Greyjoy, King of the Iron Islands Targaryen                           3
 6 Baratheon                               Balon Greyjoy, King of the Iro…     9
 7 Baratheon                               Brotherhood Without Banners         5
 8 Baratheon                               Deceased                           15
 9 Baratheon                               Essos                               1
10 Baratheon                               House Arryn (Neutral)              12
# ℹ 109 more rows
…
affiliations <- tibble(
  affiliation = V(g)$name,
  x = layout[, 2],
  y = layout[, 1],
  degree = degree(g)
)

affiliations <- data_long |> 
  count(affiliation) |> 
  left_join(affiliations, ., by = "affiliation")

affiliations

# A tibble: 27 × 5
   affiliation                                 n       x       y degree
   <chr>                                   <int>   <dbl>   <dbl>  <dbl>
 1 Balon Greyjoy, King of the Iron Islands    46 -1.50    0.178       9
 2 Baratheon                                 200 -0.944   0.556      11
 3 Bolton                                     18 -1.14    0.573       5
 4 Brotherhood Without Banners                52 -0.0743  0.958       6
 5 Deceased                                  826 -0.691  -0.123      26
 6 Dothraki                                  100 -1.07   -1.35        6
 7 Essos                                     262 -1.06   -0.541      16
 8 Essos Slavers                             113 -0.146  -1.18        6
 9 Euron Greyjoy, King of the Iron Islands     4 -2.33    0.533       2
10 High Sparrow                                7  0.232  -0.0707      4
# ℹ 17 more rows
…
