Data, Code and Visualization - #30diasdegraficos Parte 3
…
r4ds2 <- r4ds2 %>%
  count(capitulo, palabra, sort = TRUE)

total_r4ds2 <- r4ds2 %>% 
  group_by(capitulo) %>% 
  summarize(total = sum(n))

r4ds2 <- left_join(r4ds2, total_r4ds2)

r4ds2 <- r4ds2 %>%
  bind_tf_idf(palabra, capitulo, n)

r4ds2

# A tibble: 14,418 × 7
   capitulo         palabra     n total     tf   idf tf_idf
   <chr>            <chr>   <int> <int>  <dbl> <dbl>  <dbl>
 1 3. Manejar datos r         520 15300 0.0340     0      0
 2 4. Programar     x         323 10706 0.0302     0      0
 3 4. Programar     r         262 10706 0.0245     0      0
 4 2. Explorar      r         258 12661 0.0204     0      0
 5 3. Manejar datos datos     210 15300 0.0137     0      0
 6 2. Explorar      x         203 12661 0.0160     0      0
 7 3. Manejar datos x         199 15300 0.0130     0      0
 8 3. Manejar datos n         187 15300 0.0122     0      0
 9 5. Modelar       x         183  7970 0.0230     0      0
10 6. Comunicar     r         180  7320 0.0246     0      0
# ℹ 14,408 more rows
…
