Data, Code and Visualization - Visualización en el Análisis de Datos
…
Datos

Los datos a trabajar corresponden a ingresos de usuarios a estaciones de metros cada media hora. No recuerdo muy bien de donde los obtuve, pero existen y los llevo a cada repo en donde necesito mostrar este ejemplo.

Código

ruta_datos <- here::here("posts/2023-07-09-visualizacion-en-el-analisis-de-datos/data")

data <- data.table::fread(fs::path(ruta_datos, "2015.04_Subidas_paradero_mediahora_web.csv.gz"))
data <- as_tibble(data)

data

# A tibble: 358,543 × 3
   paraderosubida mediahora subidas_laboral_promedio
   <chr>          <chr>                        <dbl>
 1 ALCANTARA      05:30:00                       2.6
 2 ALCANTARA      06:00:00                      13.2
 3 ALCANTARA      06:30:00                      53.4
 4 ALCANTARA      07:00:00                     185. 
 5 ALCANTARA      07:30:00                     364  
 6 ALCANTARA      08:00:00                     546. 
 7 ALCANTARA      08:30:00                     479. 
 8 ALCANTARA      09:00:00                     359  
 9 ALCANTARA      09:30:00                     275. 
10 ALCANTARA      10:00:00                     230. 
# ℹ 358,533 more rows
…
Y por último nos aseguramos de que cada estación posea todas las mediahora.

Código

data <- complete(
  data,
  paraderosubida,
  mediahora, 
  fill = list(subidas_laboral_promedio = 0)
  )

data

# A tibble: 3,922 × 3
   paraderosubida mediahora subidas_laboral_promedio
   <chr>          <time>                       <dbl>
 1 ALCANTARA      05:30                          2.6
 2 ALCANTARA      06:00                         13.2
 3 ALCANTARA      06:30                         53.4
 4 ALCANTARA      07:00                        185. 
 5 ALCANTARA      07:30                        364  
 6 ALCANTARA      08:00                        546. 
 7 ALCANTARA      08:30                        479. 
 8 ALCANTARA      09:00                        359  
 9 ALCANTARA      09:30                        275. 
10 ALCANTARA      10:00                        230. 
# ℹ 3,912 more rows
…
library(uwot)

set.seed(123)

um <- umap(datas, verbose = TRUE, n_threads = 3, n_neighbors = 20)

dumap <- as.data.frame(um) |> 
  as_tibble() |> 
  mutate(paraderosubida = pull(datas, paraderosubida)) |> 
  select(paraderosubida, everything())

dumap

# A tibble: 106 × 3
   paraderosubida               V1     V2
   <chr>                     <dbl>  <dbl>
 1 ALCANTARA                -0.280  0.171
 2 BAQUEDANO L1             -2.11  -0.391
 3 BAQUEDANO L5              0.156  0.436
 4 BARRANCAS                 0.842  2.65 
 5 BELLAS ARTES             -0.218  0.314
 6 BELLAVISTA DE LA FLORIDA  1.23  -2.87 
 7 BLANQUEADO                1.51   2.87 
 8 CAL Y CANTO              -3.19  -0.691
 9 CAMINO AGRICOLA          -0.666  0.638
10 CARLOS VALDOVINOS         0.938  1.20 
# ℹ 96 more rows
…
