When charts are integrated in the web page – Data, Code and Visualization
…
# str(data)

data <- data$versions %>%
  map( ~ .x$dates) %>%
  enframe() %>%
  mutate(value = map(value, enframe)) %>%
  unnest() %>%
  mutate(
    value = map_dbl(value, identity),
    name1 = ymd(name1)
    )

data

# A tibble: 3,090 × 3
   name  name1      value
   <chr> <date>     <dbl>
 1 0.0.1 2024-02-24     0
 2 0.0.1 2024-02-25     7
 3 0.0.1 2024-02-26     0
 4 0.0.1 2024-02-27     0
 5 0.0.1 2024-02-28     0
 6 0.0.1 2024-02-29     0
 7 0.0.1 2024-03-01     0
 8 0.0.1 2024-03-02     0
 9 0.0.1 2024-03-03     6
10 0.0.1 2024-03-04     0
# ℹ 3,080 more rows
We’ll group the data by day:

Code

datag <- data %>%
  group_by(name1) %>%
  summarise(value = sum(value)) %>% 
  rename(
    date = name1,
    downloads = value
  )

datag

# A tibble: 30 × 2
   date       downloads
   <date>         <dbl>
 1 2024-02-24    398186
 2 2024-02-25    473378
 3 2024-02-26    582457
 4 2024-02-27    479109
 5 2024-02-28    478527
 6 2024-02-29    481919
 7 2024-03-01    470637
 8 2024-03-02    406260
 9 2024-03-03    414719
10 2024-03-04    508708
# ℹ 20 more rows
…
