Data, Code and Visualization - Using tooltips in unexpected ways
…
gp2 <- gapminder |>
  select(country, year, pop) |> 
  group_nest(country) |>
  mutate(
    data = map(data, mutate, x = year, y = pop, drop = TRUE),
    data = map(data, list_parse)
    ) |>
  rename(ttdata = data)

gptot <- left_join(gp, gp2, by = "country")

gptot

# A tibble: 142 × 7
   country     continent  year lifeExp       pop gdpPercap ttdata     
   <fct>       <fct>     <int>   <dbl>     <int>     <dbl> <list>     
 1 Afghanistan Asia       2007    43.8  31889923      975. <list [12]>
 2 Albania     Europe     2007    76.4   3600523     5937. <list [12]>
 3 Algeria     Africa     2007    72.3  33333216     6223. <list [12]>
 4 Angola      Africa     2007    42.7  12420476     4797. <list [12]>
 5 Argentina   Americas   2007    75.3  40301927    12779. <list [12]>
 6 Australia   Oceania    2007    81.2  20434176    34435. <list [12]>
 7 Austria     Europe     2007    79.8   8199783    36126. <list [12]>
 8 Bahrain     Asia       2007    75.6    708573    29796. <list [12]>
 9 Bangladesh  Asia       2007    64.1 150448339     1391. <list [12]>
10 Belgium     Europe     2007    79.4  10392226    33693. <list [12]>
# ℹ 132 more rows
…
