Data, Code and Visualization - Replicating NYT Weather App
…
Code
library(tidyverse)
library(highcharter)
library(lubridate)

url_base <- "http://graphics8.nytimes.com/newsgraphics/2016/01/01/weather/assets"
file <- "new-york_ny.csv" # "san-francisco_ca.csv"
url_file <- file.path(url_base, file)

data <- read_csv(url_file)
data <- mutate(data, dt = datetime_to_timestamp(date))

data

# A tibble: 365 × 20
   date       month temp_max temp_min temp_rec…¹ temp_…² temp_…³ temp_…⁴ temp_…⁵
   <date>     <dbl>    <dbl>    <dbl>      <dbl>   <dbl>   <dbl>   <dbl> <chr>  
 1 2015-01-01     1       39       27         62      -4      39      28 NULL   
 2 2015-01-02     1       42       35         68       2      39      28 NULL   
 3 2015-01-03     1       42       33         64      -4      39      28 NULL   
 4 2015-01-04     1       56       41         66      -3      39      27 NULL   
 5 2015-01-05     1       49       21         64      -4      38      27 NULL   
 6 2015-01-06     1       22       19         72      -2      38      27 NULL   
 7 2015-01-07     1       23        9         64       4      38      27 NULL   
 8 2015-01-08     1       21        8         65       2      38      27 NULL   
 9 2015-01-09     1       33       19         64      -1      38      27 NULL   
10 2015-01-10     1       23       16         60      -6      38      27 NULL   
# … with 355 more rows, 11 more variables: temp_rec_low <chr>,
#   precip_value <dbl>, precip_actual <dbl>, precip_normal <dbl>,
#   precip_rec <chr>, snow_rec <chr>, annual_average_temperature <dbl>,
#   departure_from_normal <dbl>, total_precipitation <dbl>,
#   precipitation_departure_from_normal <dbl>, dt <dbl>, and abbreviated
#   variable names ¹​temp_rec_max, ²​temp_rec_min, ³​temp_avg_max, ⁴​temp_avg_min,
#   ⁵​temp_rec_high
…
temps <- dtempspread %>%
  mutate(
    serie = factor(serie, levels = c("rec", "avg", "actual")),
    serie = fct_recode(
      serie,
      Record = "rec",
      Normal = "avg",
      Observed = "actual"
    )
  )

temps

# A tibble: 1,095 × 4
              dt serie      max   min
           <dbl> <fct>    <dbl> <dbl>
 1 1420070400000 Observed    39    27
 2 1420070400000 Normal      39    28
 3 1420070400000 Record      62    -4
 4 1420156800000 Observed    42    35
 5 1420156800000 Normal      39    28
 6 1420156800000 Record      68     2
 7 1420243200000 Observed    42    33
 8 1420243200000 Normal      39    28
 9 1420243200000 Record      64    -4
10 1420329600000 Observed    56    41
# … with 1,085 more rows
…
